TinyFPGA_USB_test/usb_test/usb_tb.vcd
$date
	Sun Aug 05 11:29:10 2018
$end
$version
	Icarus Verilog
$end
$timescale
	1ps
$end
$scope module top_tb $end
$scope module dut $end
$var wire 1 ! clk_48mhz $end
$var wire 1 " ctrl_out_ep_stall $end
$var wire 8 # led_in_ep_data [7:0] $end
$var wire 1 $ led_in_ep_stall $end
$var wire 1 % led_out_ep_stall $end
$var wire 1 & reset $end
$var wire 1 ' usb_n_rx $end
$var wire 1 ( usb_p_rx $end
$var wire 1 ) usb_tx_en $end
$var wire 1 * usb_p_tx $end
$var wire 1 + usb_n_tx $end
$var wire 1 , sof_valid $end
$var wire 8 - out_ep_data [7:0] $end
$var wire 1 . nak_in_ep_grant $end
$var wire 1 / nak_in_ep_data_free $end
$var wire 1 0 nak_in_ep_acked $end
$var wire 1 1 led_out_ep_setup $end
$var wire 1 2 led_out_ep_req $end
$var wire 1 3 led_out_ep_grant $end
$var wire 1 4 led_out_ep_data_get $end
$var wire 1 5 led_out_ep_data_avail $end
$var wire 1 6 led_out_ep_acked $end
$var wire 1 7 led_in_ep_req $end
$var wire 1 8 led_in_ep_grant $end
$var wire 1 9 led_in_ep_data_put $end
$var wire 1 : led_in_ep_data_free $end
$var wire 1 ; led_in_ep_data_done $end
$var wire 1 < led_in_ep_acked $end
$var wire 1 = led $end
$var wire 11 > frame_index [10:0] $end
$var wire 7 ? dev_addr [6:0] $end
$var wire 1 @ ctrl_out_ep_setup $end
$var wire 1 A ctrl_out_ep_req $end
$var wire 1 B ctrl_out_ep_grant $end
$var wire 1 C ctrl_out_ep_data_get $end
$var wire 1 D ctrl_out_ep_data_avail $end
$var wire 1 E ctrl_out_ep_acked $end
$var wire 1 F ctrl_in_ep_stall $end
$var wire 1 G ctrl_in_ep_req $end
$var wire 1 H ctrl_in_ep_grant $end
$var wire 1 I ctrl_in_ep_data_put $end
$var wire 1 J ctrl_in_ep_data_free $end
$var wire 1 K ctrl_in_ep_data_done $end
$var wire 8 L ctrl_in_ep_data [7:0] $end
$var wire 1 M ctrl_in_ep_acked $end
$scope module ctrl_ep_inst $end
$var wire 1 N all_data_sent $end
$var wire 1 ! clk $end
$var wire 1 O in_data_stage $end
$var wire 1 M in_ep_acked $end
$var wire 1 K in_ep_data_done $end
$var wire 1 J in_ep_data_free $end
$var wire 1 I in_ep_data_put $end
$var wire 1 H in_ep_grant $end
$var wire 1 G in_ep_req $end
$var wire 1 P out_data_stage $end
$var wire 1 E out_ep_acked $end
$var wire 1 D out_ep_data_avail $end
$var wire 1 C out_ep_data_get $end
$var wire 1 B out_ep_grant $end
$var wire 1 A out_ep_req $end
$var wire 1 @ out_ep_setup $end
$var wire 1 " out_ep_stall $end
$var wire 1 & reset $end
$var wire 1 Q setup_pkt_start $end
$var wire 16 R wValue [15:0] $end
$var wire 16 S wLength [15:0] $end
$var wire 16 T wIndex [15:0] $end
$var wire 1 U pkt_start $end
$var wire 1 V pkt_end $end
$var wire 8 W out_ep_data [7:0] $end
$var wire 1 X more_data_to_send $end
$var wire 1 Y in_data_transfer_done $end
$var wire 1 Z has_data_stage $end
$var wire 7 [ dev_addr [6:0] $end
$var wire 8 \ bmRequestType [7:0] $end
$var wire 8 ] bRequest [7:0] $end
$var reg 8 ^ bytes_sent [7:0] $end
$var reg 6 _ ctrl_xfr_state [5:0] $end
$var reg 6 ` ctrl_xfr_state_next [5:0] $end
$var reg 1 a data_stage_end $end
$var reg 7 b dev_addr_i [6:0] $end
$var reg 8 c in_ep_data [7:0] $end
$var reg 1 F in_ep_stall $end
$var reg 7 d new_dev_addr [6:0] $end
$var reg 1 e out_ep_data_valid $end
$var reg 7 f rom_addr [6:0] $end
$var reg 7 g rom_length [6:0] $end
$var reg 1 h save_dev_addr $end
$var reg 1 i send_zero_length_data_pkt $end
$var reg 4 j setup_data_addr [3:0] $end
$var reg 1 k setup_stage_end $end
$var reg 1 l status_stage_end $end
$scope module detect_in_data_transfer_done $end
$var wire 1 ! clk $end
$var wire 1 N in $end
$var wire 1 Y out $end
$var reg 1 m in_q $end
$upscope $end
$scope module detect_pkt_end $end
$var wire 1 ! clk $end
$var wire 1 D in $end
$var wire 1 V out $end
$var reg 1 n in_q $end
$upscope $end
$scope module detect_pkt_start $end
$var wire 1 ! clk $end
$var wire 1 D in $end
$var wire 1 U out $end
$var reg 1 o in_q $end
$upscope $end
$upscope $end
$scope module usb_fs_pe_inst $end
$var wire 1 ! clk $end
$var wire 7 p dev_addr [6:0] $end
$var wire 11 q frame_index [10:0] $end
$var wire 24 r in_ep_data [23:0] $end
$var wire 3 s in_ep_data_done [2:0] $end
$var wire 3 t in_ep_data_put [2:0] $end
$var wire 3 u in_ep_req [2:0] $end
$var wire 3 v in_ep_stall [2:0] $end
$var wire 2 w out_ep_data_get [1:0] $end
$var wire 2 x out_ep_req [1:0] $end
$var wire 2 y out_ep_stall [1:0] $end
$var wire 1 & reset $end
$var wire 1 , sof_valid $end
$var wire 1 ' usb_n_rx $end
$var wire 1 ( usb_p_rx $end
$var wire 1 ) usb_tx_en $end
$var wire 1 * usb_p_tx $end
$var wire 1 + usb_n_tx $end
$var wire 1 z tx_pkt_start $end
$var wire 1 { tx_pkt_end $end
$var wire 4 | tx_pid [3:0] $end
$var wire 1 } tx_data_get $end
$var wire 1 ~ tx_data_avail $end
$var wire 8 !" tx_data [7:0] $end
$var wire 1 "" rx_pkt_valid $end
$var wire 1 #" rx_pkt_start $end
$var wire 1 $" rx_pkt_end $end
$var wire 4 %" rx_pid [3:0] $end
$var wire 11 &" rx_frame_num [10:0] $end
$var wire 4 '" rx_endp [3:0] $end
$var wire 1 (" rx_data_put $end
$var wire 8 )" rx_data [7:0] $end
$var wire 7 *" rx_addr [6:0] $end
$var wire 1 +" out_tx_pkt_start $end
$var wire 4 ," out_tx_pid [3:0] $end
$var wire 2 -" out_ep_setup [1:0] $end
$var wire 2 ." out_ep_grant [1:0] $end
$var wire 2 /" out_ep_data_avail [1:0] $end
$var wire 8 0" out_ep_data [7:0] $end
$var wire 2 1" out_ep_acked [1:0] $end
$var wire 1 2" in_tx_pkt_start $end
$var wire 4 3" in_tx_pid [3:0] $end
$var wire 3 4" in_ep_grant [2:0] $end
$var wire 3 5" in_ep_data_free [2:0] $end
$var wire 3 6" in_ep_acked [2:0] $end
$var wire 1 7" bit_strobe $end
$var wire 8 8" arb_in_ep_data [7:0] $end
$scope module usb_fs_in_arb_inst $end
$var wire 24 9" in_ep_data [23:0] $end
$var wire 3 :" in_ep_req [2:0] $end
$var reg 8 ;" arb_in_ep_data [7:0] $end
$var reg 1 <" grant $end
$var reg 3 =" in_ep_grant [2:0] $end
$var integer 32 >" i [31:0] $end
$upscope $end
$scope module usb_fs_in_pe_inst $end
$var wire 1 ?" ack_received $end
$var wire 1 ! clk $end
$var wire 6 @" current_ep_get_addr [5:0] $end
$var wire 6 A" current_ep_put_addr [5:0] $end
$var wire 2 B" current_ep_state [1:0] $end
$var wire 7 C" dev_addr [6:0] $end
$var wire 8 D" in_ep_data [7:0] $end
$var wire 3 E" in_ep_data_done [2:0] $end
$var wire 3 F" in_ep_data_put [2:0] $end
$var wire 3 G" in_ep_stall [2:0] $end
$var wire 1 H" in_token_received $end
$var wire 1 & reset $end
$var wire 3 I" reset_ep [2:0] $end
$var wire 1 J" setup_token_received $end
$var wire 1 K" token_received $end
$var wire 1 ~ tx_data_avail $end
$var wire 1 L" tx_data_avail_i $end
$var wire 1 { tx_pkt_end $end
$var wire 1 } tx_data_get $end
$var wire 1 "" rx_pkt_valid $end
$var wire 1 #" rx_pkt_start $end
$var wire 1 $" rx_pkt_end $end
$var wire 4 M" rx_pid [3:0] $end
$var wire 11 N" rx_frame_num [10:0] $end
$var wire 4 O" rx_endp [3:0] $end
$var wire 7 P" rx_addr [6:0] $end
$var wire 1 Q" more_data_to_send $end
$var wire 9 R" buffer_put_addr [8:0] $end
$var wire 9 S" buffer_get_addr [8:0] $end
$var reg 4 T" current_endp [3:0] $end
$var reg 3 U" data_toggle [2:0] $end
$var reg 3 V" endp_free [2:0] $end
$var reg 3 W" endp_ready_to_send [2:0] $end
$var reg 3 X" in_ep_acked [2:0] $end
$var reg 3 Y" in_ep_data_free [2:0] $end
$var reg 4 Z" in_ep_num [3:0] $end
$var reg 1 [" in_xfr_end $end
$var reg 1 \" in_xfr_start $end
$var reg 2 ]" in_xfr_state [1:0] $end
$var reg 2 ^" in_xfr_state_next [1:0] $end
$var reg 1 _" rollback_in_xfr $end
$var reg 8 `" tx_data [7:0] $end
$var reg 4 a" tx_pid [3:0] $end
$var reg 1 2" tx_pkt_start $end
$var integer 32 b" ep_num_decoder [31:0] $end
$var integer 32 c" i [31:0] $end
$var integer 32 d" j [31:0] $end
$scope begin genblk1[0] $end
$upscope $end
$scope begin genblk1[1] $end
$upscope $end
$scope begin genblk1[2] $end
$upscope $end
$upscope $end
$scope module usb_fs_out_arb_inst $end
$var wire 2 e" out_ep_req [1:0] $end
$var reg 1 f" grant $end
$var reg 2 g" out_ep_grant [1:0] $end
$var integer 32 h" i [31:0] $end
$upscope $end
$scope module usb_fs_out_pe_inst $end
$var wire 1 i" bad_data_toggle $end
$var wire 1 ! clk $end
$var wire 1 j" current_ep_busy $end
$var wire 2 k" current_ep_state [1:0] $end
$var wire 1 l" data_packet_received $end
$var wire 7 m" dev_addr [6:0] $end
$var wire 1 n" invalid_packet_received $end
$var wire 1 o" non_data_packet_received $end
$var wire 2 p" out_ep_data_get [1:0] $end
$var wire 2 q" out_ep_stall [1:0] $end
$var wire 1 r" out_token_received $end
$var wire 1 & reset $end
$var wire 2 s" reset_ep [1:0] $end
$var wire 1 t" setup_token_received $end
$var wire 1 u" token_received $end
$var wire 1 { tx_pkt_end $end
$var wire 1 "" rx_pkt_valid $end
$var wire 1 #" rx_pkt_start $end
$var wire 1 $" rx_pkt_end $end
$var wire 4 v" rx_pid [3:0] $end
$var wire 11 w" rx_frame_num [10:0] $end
$var wire 4 x" rx_endp [3:0] $end
$var wire 1 (" rx_data_put $end
$var wire 8 y" rx_data [7:0] $end
$var wire 7 z" rx_addr [6:0] $end
$var wire 2 {" out_ep_data_avail [1:0] $end
$var wire 9 |" buffer_put_addr [8:0] $end
$var wire 9 }" buffer_get_addr [8:0] $end
$var reg 4 ~" current_endp [3:0] $end
$var reg 2 !# data_toggle [1:0] $end
$var reg 1 "# nak_out_transfer $end
$var reg 1 ## new_pkt_end $end
$var reg 2 $# out_ep_acked [1:0] $end
$var reg 8 %# out_ep_data [7:0] $end
$var reg 2 &# out_ep_data_avail_i [1:0] $end
$var reg 2 '# out_ep_data_avail_j [1:0] $end
$var reg 4 (# out_ep_num [3:0] $end
$var reg 2 )# out_ep_setup [1:0] $end
$var reg 1 *# out_xfr_start $end
$var reg 2 +# out_xfr_state [1:0] $end
$var reg 2 ,# out_xfr_state_next [1:0] $end
$var reg 1 -# rollback_data $end
$var reg 4 .# tx_pid [3:0] $end
$var reg 1 +" tx_pkt_start $end
$var integer 32 /# ep_num_decoder [31:0] $end
$var integer 32 0# i [31:0] $end
$var integer 32 1# j [31:0] $end
$scope begin genblk1[0] $end
$upscope $end
$scope begin genblk1[1] $end
$upscope $end
$upscope $end
$scope module usb_fs_rx_inst $end
$var wire 1 2# clk $end
$var wire 1 ! clk_48mhz $end
$var wire 1 3# crc16_invert $end
$var wire 1 4# crc5_invert $end
$var wire 1 ' dn $end
$var wire 1 ( dp $end
$var wire 1 5# dvalid $end
$var wire 1 6# packet_end $end
$var wire 1 7# packet_start $end
$var wire 1 $" pkt_end $end
$var wire 1 #" pkt_start $end
$var wire 1 & reset $end
$var wire 1 (" rx_data_put $end
$var wire 1 "" valid_packet $end
$var wire 1 8# token_payload_done $end
$var wire 1 9# rx_data_buffer_full $end
$var wire 8 :# rx_data [7:0] $end
$var wire 1 ;# pkt_is_token $end
$var wire 1 <# pkt_is_handshake $end
$var wire 1 =# pkt_is_data $end
$var wire 1 ># pid_valid $end
$var wire 1 ?# pid_complete $end
$var wire 4 @# pid [3:0] $end
$var wire 1 A# line_state_valid $end
$var wire 2 B# dpair [1:0] $end
$var wire 1 C# crc5_valid $end
$var wire 1 D# crc16_valid $end
$var wire 1 7" bit_strobe $end
$var reg 7 E# addr [6:0] $end
$var reg 2 F# bit_phase [1:0] $end
$var reg 6 G# bitstuff_history [5:0] $end
$var reg 16 H# crc16 [15:0] $end
$var reg 5 I# crc5 [4:0] $end
$var reg 1 J# din $end
$var reg 4 K# dpair_q [3:0] $end
$var reg 1 L# dvalid_raw $end
$var reg 4 M# endp [3:0] $end
$var reg 11 N# frame_num [10:0] $end
$var reg 9 O# full_pid [8:0] $end
$var reg 6 P# line_history [5:0] $end
$var reg 3 Q# line_state [2:0] $end
$var reg 1 R# next_packet_valid $end
$var reg 1 S# packet_valid $end
$var reg 9 T# rx_data_buffer [8:0] $end
$var reg 12 U# token_payload [11:0] $end
$upscope $end
$scope module usb_fs_tx_inst $end
$var wire 1 7" bit_strobe $end
$var wire 1 V# clk $end
$var wire 1 ! clk_48mhz $end
$var wire 1 W# crc16_invert $end
$var wire 1 { pkt_end $end
$var wire 1 & reset $end
$var wire 8 X# tx_data [7:0] $end
$var wire 1 ~ tx_data_avail $end
$var wire 1 Y# serial_tx_se0 $end
$var wire 1 Z# serial_tx_oe $end
$var wire 1 [# serial_tx_data $end
$var wire 1 z pkt_start $end
$var wire 4 \# pid [3:0] $end
$var wire 1 ]# bitstuff $end
$var wire 6 ^# bit_history [5:0] $end
$var reg 3 _# bit_count [2:0] $end
$var reg 5 `# bit_history_q [4:0] $end
$var reg 1 a# bitstuff_q $end
$var reg 1 b# bitstuff_qq $end
$var reg 1 c# bitstuff_qqq $end
$var reg 1 d# bitstuff_qqqq $end
$var reg 1 e# byte_strobe $end
$var reg 16 f# crc16 [15:0] $end
$var reg 1 g# data_payload $end
$var reg 8 h# data_shift_reg [7:0] $end
$var reg 1 + dn $end
$var reg 1 * dp $end
$var reg 3 i# dp_eop [2:0] $end
$var reg 1 ) oe $end
$var reg 8 j# oe_shift_reg [7:0] $end
$var reg 4 k# pidq [3:0] $end
$var reg 32 l# pkt_state [31:0] $end
$var reg 8 m# se0_shift_reg [7:0] $end
$var reg 1 } tx_data_get $end
$upscope $end
$scope module usb_fs_tx_mux_inst $end
$var wire 4 n# in_tx_pid [3:0] $end
$var wire 1 2" in_tx_pkt_start $end
$var wire 4 o# out_tx_pid [3:0] $end
$var wire 1 +" out_tx_pkt_start $end
$var wire 1 z tx_pkt_start $end
$var wire 4 p# tx_pid [3:0] $end
$upscope $end
$upscope $end
$scope module usb_led_ep_inst $end
$var wire 1 ! clk $end
$var wire 1 q# in_data_ready $end
$var wire 1 < in_ep_acked $end
$var wire 8 r# in_ep_data [7:0] $end
$var wire 1 : in_ep_data_free $end
$var wire 1 8 in_ep_grant $end
$var wire 1 $ in_ep_stall $end
$var wire 1 s# out_data_ready $end
$var wire 1 6 out_ep_acked $end
$var wire 8 t# out_ep_data [7:0] $end
$var wire 1 5 out_ep_data_avail $end
$var wire 1 4 out_ep_data_get $end
$var wire 1 3 out_ep_grant $end
$var wire 1 2 out_ep_req $end
$var wire 1 1 out_ep_setup $end
$var wire 1 % out_ep_stall $end
$var wire 1 & reset $end
$var reg 1 ; in_ep_data_done $end
$var reg 1 9 in_ep_data_put $end
$var reg 1 7 in_ep_req $end
$var reg 1 = led $end
$var reg 3 u# next_state [2:0] $end
$var reg 3 v# state [2:0] $end
$var reg 1 w# toggle_led_ $end
$upscope $end
$upscope $end
$upscope $end
$enddefinitions $end
#0
$dumpvars
0w#
b0 v#
b0 u#
b0 t#
xs#
bz r#
0q#
b0 p#
b0 o#
b0 n#
b0 m#
b0 l#
b0 k#
b0 j#
b0 i#
b0 h#
0g#
b0 f#
0e#
0d#
0c#
0b#
0a#
b0 `#
b0 _#
b0 ^#
0]#
b0 \#
0[#
0Z#
0Y#
b0 X#
0W#
xV#
b0 U#
b0 T#
0S#
0R#
b0 Q#
b0 P#
b0 O#
b0 N#
b0 M#
0L#
b0 K#
0J#
b0 I#
b0 H#
b0 G#
b0 F#
b0 E#
0D#
0C#
b0 B#
0A#
b0 @#
0?#
0>#
0=#
0<#
0;#
b0 :#
09#
08#
07#
06#
05#
04#
03#
x2#
bx 1#
bx 0#
bx /#
b0 .#
0-#
b0 ,#
b0 +#
0*#
b0 )#
b0 (#
b0 '#
b0 &#
b0 %#
b0 $#
0##
0"#
b0 !#
b0 ~"
b0xxxxx }"
b0xxxxx |"
bx {"
b0 z"
b0 y"
b0 x"
b0 w"
b0 v"
0u"
0t"
b0 s"
0r"
b0 q"
bx p"
0o"
0n"
b0 m"
0l"
bx k"
xj"
0i"
bx h"
bx g"
xf"
bx e"
bx d"
b11 c"
b11 b"
b0 a"
b0 `"
1_"
b0 ^"
b0 ]"
0\"
0["
b0 Z"
b0 Y"
b0 X"
b0 W"
b111 V"
b0 U"
b0 T"
b0 S"
b0 R"
0Q"
b0 P"
b0 O"
b0 N"
b0 M"
0L"
0K"
0J"
b0 I"
0H"
b0x G"
b0 F"
b0 E"
b0 D"
b0 C"
b0 B"
b0 A"
b0 @"
0?"
b11 >"
b0 ="
0<"
b0 ;"
b0 :"
b0zzzzzzzz00010010 9"
b0 8"
07"
b0 6"
b0 5"
b0 4"
b0 3"
02"
b0 1"
b0 0"
bx /"
bx ."
b0 -"
b0 ,"
0+"
b0 *"
b0 )"
0("
b0 '"
b0 &"
b0 %"
0$"
0#"
0""
b0 !"
0~
0}
b0 |
0{
0z
b0 y
bx x
bx w
b0x v
b0 u
b0 t
b0 s
b0zzzzzzzz00010010 r
b0 q
b0 p
xo
xn
xm
0l
0k
b0 j
0i
0h
b0 g
b0 f
0e
b0 d
b10010 c
b0 b
0a
b0 `
b0 _
b0 ^
bx ]
bx \
b0 [
xZ
xY
0X
b0 W
xV
xU
bx T
bx S
bx R
0Q
xP
xO
1N
0M
b10010 L
0K
0J
0I
0H
0G
xF
0E
xD
xC
xB
xA
0@
b0 ?
b0 >
0=
0<
0;
0:
09
08
07
06
x5
x4
x3
x2
01
00
0/
0.
b0 -
0,
0+
0*
0)
0(
1'
0&
0%
0$
bz #
0"
x!
$end
#1
02#
0V#
0!
#10417
03
0B
b0 ."
b0 g"
1_"
b10 /#
0U
b10 h"
0f"
04
0s#
1/
1:
1J
0A
b0 w
b0 p"
0C
0D
b0 x
b0 e"
02
05
0Y
b111 5"
b111 Y"
b0 }"
1j"
b0 /"
b0 {"
1m
xe
b0 v
b0 G"
0F
b1 B"
bx !"
bx `"
bx X#
b0 k"
bx -
bx W
bx 0"
bx %#
bx t#
b1 K#
1A#
b1 F#
b11 d"
b10 0#
b10 1#
12#
1V#
1!
#20833
02#
0V#
0!
#31249
0V
b1 B#
0e
0n
0o
0A#
17"
b10 F#
b101 K#
b10 1#
b10 0#
b11 d"
12#
1V#
1!
#41665
02#
0V#
0!
#52081
b100 Q#
07"
b11 F#
b1 _#
1e#
1+
1*
b11 d"
b10 0#
b10 1#
12#
1V#
1!
#62497
02#
0V#
0!
#72913
b0 F#
b1 Q#
0e#
b10 1#
b10 0#
b11 d"
12#
1V#
1!
#83328
0'
1(
#83329
02#
0V#
0!
#93745
b110 K#
1A#
b1 F#
b11 d"
b10 0#
b10 1#
12#
1V#
1!
#104161
02#
0V#
0!
#114577
b10 B#
b1 P#
0A#
17"
b10 F#
b1010 K#
b10 1#
b10 0#
b11 d"
12#
1V#
1!
#124993
02#
0V#
0!
#135409
b100 Q#
07"
b11 F#
b10 _#
0+
0*
b11 d"
b10 0#
b10 1#
12#
1V#
1!
#145825
02#
0V#
0!
#156241
b0 F#
b10 Q#
b10 1#
b10 0#
b11 d"
12#
1V#
1!
#166656
1'
0(
#166657
02#
0V#
0!
#177073
b1001 K#
1A#
b1 F#
b11 d"
b10 0#
b10 1#
12#
1V#
1!
#187489
02#
0V#
0!
#197905
b1 B#
b110 P#
0A#
17"
b10 F#
b101 K#
b10 1#
b10 0#
b11 d"
12#
1V#
1!
#208321
02#
0V#
0!
#218737
b100 Q#
07"
b11 F#
b11 _#
1+
1*
b11 d"
b10 0#
b10 1#
12#
1V#
1!
#229153
02#
0V#
0!
#239569
b0 F#
b1 Q#
b10 1#
b10 0#
b11 d"
12#
1V#
1!
#249984
0'
1(
#249985
02#
0V#
0!
#260401
b110 K#
1A#
b1 F#
b11 d"
b10 0#
b10 1#
12#
1V#
1!
#270817
02#
0V#
0!
#281233
b10 B#
b11001 P#
0A#
17"
b10 F#
b1010 K#
b10 1#
b10 0#
b11 d"
12#
1V#
1!
#291649
02#
0V#
0!
#302065
b100 Q#
07"
b11 F#
b100 _#
0+
0*
b11 d"
b10 0#
b10 1#
12#
1V#
1!
#312481
02#
0V#
0!
#322897
b0 F#
b10 Q#
b10 1#
b10 0#
b11 d"
12#
1V#
1!
#333312
1'
0(
#333313
02#
0V#
0!
#343729
b1001 K#
1A#
b1 F#
b11 d"
b10 0#
b10 1#
12#
1V#
1!
#354145
02#
0V#
0!
#364561
b1 B#
b100110 P#
0A#
17"
b10 F#
b101 K#
b10 1#
b10 0#
b11 d"
12#
1V#
1!
#374977
02#
0V#
0!
#385393
b100 Q#
07"
b11 F#
b101 _#
1+
1*
b11 d"
b10 0#
b10 1#
12#
1V#
1!
#395809
02#
0V#
0!
#406225
b0 F#
b1 Q#
b10 1#
b10 0#
b11 d"
12#
1V#
1!
#416640
0'
1(
#416641
02#
0V#
0!
#427057
b110 K#
1A#
b1 F#
b11 d"
b10 0#
b10 1#
12#
1V#
1!
#437473
02#
0V#
0!
#447889
b10 B#
b11001 P#
0A#
17"
b10 F#
b1010 K#
b10 1#
b10 0#
b11 d"
12#
1V#
1!
#458305
02#
0V#
0!
#468721
b100 Q#
07"
b11 F#
b110 _#
0+
0*
b11 d"
b10 0#
b10 1#
12#
1V#
1!
#479137
02#
0V#
0!
#489553
b0 F#
b10 Q#
b10 1#
b10 0#
b11 d"
12#
1V#
1!
#499968
1'
0(
#499969
02#
0V#
0!
#510385
b1001 K#
1A#
b1 F#
b11 d"
b10 0#
b10 1#
12#
1V#
1!
#520801
02#
0V#
0!
#531217
b1 B#
b100110 P#
0A#
17"
b10 F#
b101 K#
b10 1#
b10 0#
b11 d"
12#
1V#
1!
#541633
02#
0V#
0!
#552049
b100 Q#
07"
b11 F#
b111 _#
1+
1*
b11 d"
b10 0#
b10 1#
12#
1V#
1!
#562465
02#
0V#
0!
#572881
b0 F#
b1 Q#
b10 1#
b10 0#
b11 d"
12#
1V#
1!
#583297
02#
0V#
0!
#593713
1A#
b1 F#
b11 d"
b10 0#
b10 1#
12#
1V#
1!
#604129
02#
0V#
0!
#614545
b11001 P#
0A#
17"
b10 F#
b10 1#
b10 0#
b11 d"
12#
1V#
1!
#624961
02#
0V#
0!
#635377
07"
b11 F#
b0 _#
0+
0*
b11 d"
b10 0#
b10 1#
12#
1V#
1!
#645793
02#
0V#
0!
#656209
b0 F#
b10 1#
b10 0#
b11 d"
12#
1V#
1!
#666625
02#
0V#
0!
#677041
1A#
b1 F#
b11 d"
b10 0#
b10 1#
12#
1V#
1!
#687457
02#
0V#
0!
#697873
13#
14#
1J#
b100101 P#
0A#
17"
b10 F#
b10 1#
b10 0#
b11 d"
12#
1V#
1!
#708289
02#
0V#
0!
#718705
07"
b11 F#
b1 _#
1e#
1+
1*
b11 d"
b10 0#
b10 1#
12#
1V#
1!
#729121
02#
0V#
0!
#739537
b0 F#
0e#
b10 1#
b10 0#
b11 d"
12#
1V#
1!
#749952
0'
1(
#749953
02#
0V#
0!
#760369
1#"
17#
1R#
b110 K#
1A#
b1 F#
b11 d"
b10 0#
b10 1#
12#
1V#
1!
#770785
02#
0V#
0!
#781201
03#
04#
b10000000 )"
b10000000 y"
b10000000 :#
0#"
07#
b10 B#
b100000000 T#
b100000000000 U#
b1111111111111111 H#
b11111 I#
b100000000 O#
1S#
b10101 P#
0A#
17"
b10 F#
b1010 K#
b10 1#
b10 0#
b11 d"
12#
1V#
1!
#791617
02#
0V#
0!
#802033
b100 Q#
07"
b11 F#
b10 _#
0+
0*
b11 d"
b10 0#
b10 1#
12#
1V#
1!
#812449
02#
0V#
0!
#822865
b0 F#
b10 Q#
b10 1#
b10 0#
b11 d"
12#
1V#
1!
#833280
1'
0(
#833281
02#
0V#
0!
#843697
15#
1L#
b1001 K#
1A#
b1 F#
b11 d"
b10 0#
b10 1#
12#
1V#
1!
#854113
02#
0V#
0!
#864529
05#
13#
14#
0L#
0J#
b1 B#
b110000000 O#
b1 G#
b10110 P#
0A#
17"
b10 F#
b101 K#
b10 1#
b10 0#
b11 d"
12#
1V#
1!
#874945
02#
0V#
0!
#885361
b100 Q#
07"
b11 F#
b11 _#
1+
1*
b11 d"
b10 0#
b10 1#
12#
1V#
1!
#895777
02#
0V#
0!
#906193
b0 F#
b1 Q#
b10 1#
b10 0#
b11 d"
12#
1V#
1!
#916608
0'
1(
#916609
02#
0V#
0!
#927025
15#
1L#
b110 K#
1A#
b1 F#
b11 d"
b10 0#
b10 1#
12#
1V#
1!
#937441
02#
0V#
0!
#947857
05#
0L#
b10 B#
b11000000 O#
b10 G#
b11001 P#
0A#
17"
b10 F#
b1010 K#
b10 1#
b10 0#
b11 d"
12#
1V#
1!
#958273
02#
0V#
0!
#968689
b100 Q#
07"
b11 F#
b100 _#
0+
0*
b11 d"
b10 0#
b10 1#
12#
1V#
1!
#979105
02#
0V#
0!
#989521
b0 F#
b10 Q#
b10 1#
b10 0#
b11 d"
12#
1V#
1!
#999936
1'
0(
#999937
02#
0V#
0!
#1010353
15#
1L#
b1001 K#
1A#
b1 F#
b11 d"
b10 0#
b10 1#
12#
1V#
1!
#1020769
02#
0V#
0!
#1031185
05#
0L#
b1 B#
b1100000 O#
b100 G#
b100110 P#
0A#
17"
b10 F#
b101 K#
b10 1#
b10 0#
b11 d"
12#
1V#
1!
#1041601
02#
0V#
0!
#1052017
b100 Q#
07"
b11 F#
b101 _#
1+
1*
b11 d"
b10 0#
b10 1#
12#
1V#
1!
#1062433
02#
0V#
0!
#1072849
b0 F#
b1 Q#
b10 1#
b10 0#
b11 d"
12#
1V#
1!
#1083265
02#
0V#
0!
#1093681
15#
1L#
1A#
b1 F#
b11 d"
b10 0#
b10 1#
12#
1V#
1!
#1104097
02#
0V#
0!
#1114513
05#
0L#
b1000 %"
b1000 M"
b1000 v"
b1000 @#
b110000 O#
b1000 G#
b11001 P#
0A#
17"
b10 F#
b10 1#
b10 0#
b11 d"
12#
1V#
1!
#1124929
02#
0V#
0!
#1135345
07"
b11 F#
b110 _#
0+
0*
b11 d"
b10 0#
b10 1#
12#
1V#
1!
#1145761
02#
0V#
0!
#1156177
b0 F#
b10 1#
b10 0#
b11 d"
12#
1V#
1!
#1166593
02#
0V#
0!
#1177009
15#
1L#
1A#
b1 F#
b11 d"
b10 0#
b10 1#
12#
1V#
1!
#1187425
02#
0V#
0!
#1197841
05#
03#
04#
0L#
1J#
b1100 %"
b1100 M"
b1100 v"
b1100 @#
b11000 O#
b10000 G#
b100101 P#
0A#
17"
b10 F#
b10 1#
b10 0#
b11 d"
12#
1V#
1!
#1208257
02#
0V#
0!
#1218673
07"
b11 F#
b111 _#
1+
1*
b11 d"
b10 0#
b10 1#
12#
1V#
1!
#1229089
02#
0V#
0!
#1239505
b0 F#
b10 1#
b10 0#
b11 d"
12#
1V#
1!
#1249921
02#
0V#
0!
#1260337
15#
1L#
1A#
b1 F#
b11 d"
b10 0#
b10 1#
12#
1V#
1!
#1270753
02#
0V#
0!
#1281169
05#
0L#
1<#
b110 %"
b110 M"
b110 v"
b110 @#
b100001100 O#
b100001 G#
b10101 P#
0A#
17"
b10 F#
b10 1#
b10 0#
b11 d"
12#
1V#
1!
#1291585
02#
0V#
0!
#1302001
07"
b11 F#
b0 _#
0+
0*
b11 d"
b10 0#
b10 1#
12#
1V#
1!
#1312417
02#
0V#
0!
#1322833
b0 F#
b10 1#
b10 0#
b11 d"
12#
1V#
1!
#1333248
0'
1(
#1333249
02#
0V#
0!
#1343665
15#
1L#
b110 K#
1A#
b1 F#
b11 d"
b10 0#
b10 1#
12#
1V#
1!
#1354081
02#
0V#
0!
#1364497
05#
0L#
1>#
1=#
0<#
b11 %"
b11 M"
b11 v"
b11 @#
b10 B#
b110000110 O#
b11 G#
0A#
17"
b10 F#
b1010 K#
b10 1#
b10 0#
b11 d"
12#
1V#
1!
#1374913
02#
0V#
0!
#1385329
b100 Q#
07"
b11 F#
b1 _#
1e#
1+
1*
b11 d"
b10 0#
b10 1#
12#
1V#
1!
#1395745
02#
0V#
0!
#1406161
b0 F#
b10 Q#
0e#
b10 1#
b10 0#
b11 d"
12#
1V#
1!
#1416576
1'
0(
#1416577
02#
0V#
0!
#1426993
15#
1L#
b1001 K#
1A#
b1 F#
b11 d"
b10 0#
b10 1#
12#
1V#
1!
#1437409
02#
0V#
0!
#1447825
05#
13#
14#
0L#
0J#
1>#
1?#
1;#
0=#
b1 %"
b1 M"
b1 v"
b1 @#
b1 B#
b111000011 O#
b111 G#
b10110 P#
0A#
17"
b10 F#
b101 K#
b10 1#
b10 0#
b11 d"
12#
1V#
1!
#1458241
02#
0V#
0!
#1468657
b100 Q#
07"
b11 F#
b10 _#
0+
0*
b11 d"
b10 0#
b10 1#
12#
1V#
1!
#1479073
02#
0V#
0!
#1489489
b0 F#
b1 Q#
b10 1#
b10 0#
b11 d"
12#
1V#
1!
#1499904
0'
1(
#1499905
02#
0V#
0!
#1510321
15#
1L#
b110 K#
1A#
b1 F#
b11 d"
b10 0#
b10 1#
12#
1V#
1!
#1520737
02#
0V#
0!
